{
    "development": {
        "username": "postgres",
        "password": "nlpf",
        "database": "postgres",
        "port": 5432,
        "host": "127.0.0.1",
        "dialect": "postgres"
    },
    "production": {
        "username": "root",
        "password": null,
        "database": "XXX_production",
        "host": "127.0.0.1",
        "dialect": "mysql"
    }

}